hit on layer 4: 2
y1 position : -108.596  j = 7
y2 position : -108.602  j = 8
hit on layer 4: 2
y1 position : -130.927  j = 7
y2 position : -130.936  j = 8
hit on layer 4: 4
y1 position : -69.2523  j = 9
y2 position : -69.2139  j = 10
y3 position : -13.4893  j = 16
y4 position : 203.261  j = 17
hit on layer 4: 4
y1 position : -108.868  j = 4
y2 position : -195.474  j = 7
y3 position : -147.008  j = 8
y4 position : -208.623  j = 11
hit on layer 4: 2
y1 position : -110.874  j = 7
y2 position : -110.88  j = 8
hit on layer 4: 3
y1 position : -80.1905  j = 7
y2 position : -80.1907  j = 8
y3 position : -80.1816  j = 9
hit on layer 4: 2
y1 position : -413.236  j = 1
y2 position : -413.407  j = 2
hit on layer 4: 7
y1 position : -290.949  j = 3
y2 position : 309.76  j = 12
y3 position : 668.011  j = 19
y4 position : 668.527  j = 20
y5 position : 634.376  j = 21
y6 position : 64.2657  j = 28
y7 position : -70.2692  j = 29
hit on layer 4: 2
y1 position : 392.646  j = 7
y2 position : 392.668  j = 8
hit on layer 4: 2
y1 position : -27.6747  j = 7
y2 position : -27.6763  j = 8
hit on layer 4: 2
y1 position : -1933.38  j = 4
y2 position : -1934.69  j = 5
hit on layer 4: 2
y1 position : 190.706  j = 7
y2 position : 190.733  j = 8
hit on layer 4: 2
y1 position : 86.2774  j = 7
y2 position : 86.2864  j = 8
hit on layer 4: 2
y1 position : -148.98  j = 2
y2 position : -179.731  j = 13
hit on layer 4: 2
y1 position : -100.78  j = 8
y2 position : -100.786  j = 9
hit on layer 4: 2
y1 position : -198.136  j = 7
y2 position : -198.351  j = 8
hit on layer 4: 2
y1 position : -206.278  j = 7
y2 position : -206.288  j = 8
hit on layer 4: 6
y1 position : 258.867  j = 5
y2 position : 438.66  j = 8
y3 position : 545.841  j = 9
y4 position : 452.175  j = 14
y5 position : 505.708  j = 15
y6 position : 506.973  j = 16
hit on layer 4: 2
y1 position : -205.162  j = 0
y2 position : 55.5904  j = 6
hit on layer 4: 2
y1 position : -197.447  j = 8
y2 position : -197.461  j = 9
hit on layer 4: 2
y1 position : 1803.96  j = 7
y2 position : 1803.96  j = 8
hit on layer 4: 5
y1 position : -153.904  j = 1
y2 position : -57.2601  j = 10
y3 position : 156.451  j = 14
y4 position : 248.485  j = 15
y5 position : 253.092  j = 16
hit on layer 4: 2
y1 position : -225.09  j = 8
y2 position : -225.133  j = 9
hit on layer 4: 2
y1 position : 226.447  j = 7
y2 position : 226.449  j = 8
hit on layer 4: 2
y1 position : 226.031  j = 3
y2 position : 226.065  j = 4
hit on layer 4: 2
y1 position : -96.3317  j = 7
y2 position : -96.3421  j = 8
hit on layer 4: 2
y1 position : 123.414  j = 3
y2 position : 123.429  j = 4
hit on layer 4: 2
y1 position : -42.2337  j = 7
y2 position : -42.295  j = 8
hit on layer 4: 2
y1 position : 119.345  j = 0
y2 position : 119.362  j = 1
hit on layer 4: 2
y1 position : -275.265  j = 6
y2 position : -275.324  j = 7
hit on layer 4: 2
y1 position : -98.7968  j = 7
y2 position : -98.9307  j = 8
hit on layer 4: 2
y1 position : 186.338  j = 9
y2 position : 186.339  j = 10
hit on layer 4: 2
y1 position : 333.762  j = 8
y2 position : 333.794  j = 9
hit on layer 4: 2
y1 position : 61.4218  j = 11
y2 position : 61.4229  j = 12
hit on layer 4: 2
y1 position : -19.6781  j = 7
y2 position : -19.6793  j = 8
hit on layer 4: 2
y1 position : -22.4811  j = 4
y2 position : -22.5198  j = 5
hit on layer 4: 2
y1 position : 50.3443  j = 0
y2 position : -758.723  j = 10
hit on layer 4: 2
y1 position : 137.839  j = 7
y2 position : 137.854  j = 8
hit on layer 4: 2
y1 position : 607.638  j = 1
y2 position : 607.692  j = 2
hit on layer 4: 2
y1 position : 696.394  j = 4
y2 position : -723.801  j = 17
hit on layer 4: 2
y1 position : 98.6039  j = 3
y2 position : 98.6107  j = 4
hit on layer 4: 4
y1 position : -418.152  j = 9
y2 position : -395.021  j = 10
y3 position : -388.73  j = 11
y4 position : -393.253  j = 12
hit on layer 4: 8
y1 position : -79.9321  j = 1
y2 position : 149.171  j = 8
y3 position : 164.906  j = 9
y4 position : 147.546  j = 10
y5 position : 125.302  j = 11
y6 position : 93.0097  j = 12
y7 position : 83.512  j = 13
y8 position : 83.427  j = 14
hit on layer 4: 2
y1 position : 71.9324  j = 8
y2 position : 71.9353  j = 9
hit on layer 4: 2
y1 position : 92.8882  j = 7
y2 position : 92.8888  j = 8
hit on layer 4: 4
y1 position : 26.0399  j = 7
y2 position : -446.465  j = 17
y3 position : -522.93  j = 20
y4 position : -675.237  j = 21
hit on layer 4: 2
y1 position : 256.408  j = 7
y2 position : 256.424  j = 8
hit on layer 4: 2
y1 position : 65.3638  j = 8
y2 position : 65.3702  j = 9
hit on layer 4: 2
y1 position : 221.163  j = 6
y2 position : 221.174  j = 7
hit on layer 4: 2
y1 position : -318.267  j = 7
y2 position : -318.307  j = 8
hit on layer 4: 2
y1 position : 70.444  j = 8
y2 position : 70.4442  j = 9
hit on layer 4: 2
y1 position : -307.951  j = 8
y2 position : -307.969  j = 9
hit on layer 4: 2
y1 position : 54.5585  j = 8
y2 position : 54.5716  j = 9
hit on layer 4: 7
y1 position : -37.4698  j = 0
y2 position : -259.811  j = 5
y3 position : -322.5  j = 8
y4 position : -366.774  j = 9
y5 position : -294.279  j = 10
y6 position : 161.733  j = 11
y7 position : 161.674  j = 12
hit on layer 4: 2
y1 position : 33.4454  j = 2
y2 position : 64.6828  j = 10
hit on layer 4: 2
y1 position : 11.2748  j = 6
y2 position : 11.2754  j = 7
hit on layer 4: 2
y1 position : 171.203  j = 10
y2 position : 171.215  j = 11
hit on layer 4: 4
y1 position : -148.704  j = 1
y2 position : 2.636  j = 10
y3 position : 141.427  j = 13
y4 position : 155.689  j = 14
hit on layer 4: 2
y1 position : 26.5575  j = 4
y2 position : 26.5873  j = 5
hit on layer 4: 2
y1 position : -119.771  j = 8
y2 position : -119.774  j = 9
hit on layer 4: 2
y1 position : 117.472  j = 7
y2 position : 117.469  j = 8
hit on layer 4: 2
y1 position : -1324.61  j = 6
y2 position : -1324.62  j = 7
hit on layer 4: 3
y1 position : 141.672  j = 4
y2 position : 216.122  j = 7
y3 position : 110.424  j = 8
hit on layer 4: 2
y1 position : -133.022  j = 3
y2 position : -133.037  j = 4
hit on layer 4: 2
y1 position : 367.276  j = 7
y2 position : 367.301  j = 8
hit on layer 4: 2
y1 position : -210.866  j = 7
y2 position : -210.886  j = 8
hit on layer 4: 2
y1 position : -24.124  j = 7
y2 position : -24.1233  j = 8
hit on layer 4: 2
y1 position : -1345.91  j = 7
y2 position : -1346.08  j = 8
hit on layer 4: 2
y1 position : 52.4139  j = 3
y2 position : 52.4148  j = 4
hit on layer 4: 2
y1 position : 586.201  j = 7
y2 position : 586.238  j = 8
hit on layer 4: 2
y1 position : -122.591  j = 0
y2 position : -48.5626  j = 9
hit on layer 4: 2
y1 position : -133.25  j = 7
y2 position : -133.281  j = 8
hit on layer 4: 5
y1 position : -216.633  j = 0
y2 position : -24.8512  j = 9
y3 position : 260.406  j = 16
y4 position : 151.22  j = 17
y5 position : 151.198  j = 18
hit on layer 4: 2
y1 position : -41.59  j = 8
y2 position : -41.5567  j = 9
hit on layer 4: 2
y1 position : 322.751  j = 7
y2 position : 322.756  j = 8
hit on layer 4: 2
y1 position : 37.4424  j = 7
y2 position : 37.3613  j = 8
hit on layer 4: 2
y1 position : -35.7511  j = 0
y2 position : -35.7691  j = 1
hit on layer 4: 2
y1 position : -1351.72  j = 7
y2 position : -1351.84  j = 8
hit on layer 4: 2
y1 position : -1160.04  j = 7
y2 position : -1160.07  j = 8
hit on layer 4: 2
y1 position : 43.0864  j = 7
y2 position : 43.0926  j = 8
hit on layer 4: 2
y1 position : -2.496  j = 5
y2 position : -2.4969  j = 6
hit on layer 4: 3
y1 position : -41.1768  j = 3
y2 position : -41.1777  j = 4
y3 position : -41.1809  j = 5
hit on layer 4: 2
y1 position : -246.547  j = 7
y2 position : -246.579  j = 8
hit on layer 4: 2
y1 position : -97.6688  j = 8
y2 position : -97.681  j = 9
hit on layer 4: 3
y1 position : -107.034  j = 1
y2 position : -107.049  j = 2
y3 position : -107.049  j = 3
hit on layer 4: 2
y1 position : -35.5868  j = 7
y2 position : -35.5889  j = 8
hit on layer 4: 3
y1 position : -282.182  j = 4
y2 position : -1429.87  j = 11
y3 position : -1430.05  j = 12
hit on layer 4: 2
y1 position : 1320.93  j = 4
y2 position : 1320.91  j = 5
hit on layer 4: 2
y1 position : 1377.97  j = 4
y2 position : 1378.09  j = 5
hit on layer 4: 2
y1 position : 61.5703  j = 9
y2 position : 61.5739  j = 10
hit on layer 4: 2
y1 position : 58.0179  j = 3
y2 position : 58.0269  j = 4
hit on layer 4: 4
y1 position : 1146.05  j = 4
y2 position : 1145.26  j = 5
y3 position : 490.459  j = 13
y4 position : 490.412  j = 14
hit on layer 4: 3
y1 position : -353.555  j = 10
y2 position : -353.578  j = 11
y3 position : -353.58  j = 12
hit on layer 4: 2
y1 position : 1710.76  j = 8
y2 position : 1710.85  j = 9
hit on layer 4: 2
y1 position : -238.307  j = 7
y2 position : -238.314  j = 8
hit on layer 4: 2
y1 position : 356.412  j = 0
y2 position : 7.4172  j = 17
hit on layer 4: 2
y1 position : -1012.13  j = 4
y2 position : -1013.09  j = 5
hit on layer 4: 2
y1 position : 355.729  j = 7
y2 position : 355.795  j = 8
hit on layer 4: 3
y1 position : -52.6183  j = 7
y2 position : -52.6193  j = 8
y3 position : -52.6215  j = 9
hit on layer 4: 2
y1 position : 753.921  j = 7
y2 position : 753.966  j = 8
hit on layer 4: 2
y1 position : -10.3965  j = 5
y2 position : -10.4071  j = 6
hit on layer 4: 2
y1 position : 490.943  j = 0
y2 position : 792.727  j = 15
hit on layer 4: 2
y1 position : -164.627  j = 1
y2 position : -164.971  j = 2
hit on layer 4: 2
y1 position : 125.723  j = 1
y2 position : 125.713  j = 2
hit on layer 4: 2
y1 position : 94.8062  j = 3
y2 position : 94.8095  j = 4
hit on layer 4: 2
y1 position : -38.2645  j = 7
y2 position : -38.2639  j = 8
hit on layer 4: 2
y1 position : -90.8937  j = 1
y2 position : -90.8991  j = 2
hit on layer 4: 2
y1 position : 95.8086  j = 7
y2 position : 95.8586  j = 8
hit on layer 4: 2
y1 position : -426.692  j = 1
y2 position : -426.692  j = 2
hit on layer 4: 2
y1 position : 152.212  j = 7
y2 position : 152.228  j = 8
hit on layer 4: 2
y1 position : 66.8934  j = 3
y2 position : 66.8978  j = 4
hit on layer 4: 2
y1 position : -195.189  j = 9
y2 position : -267.059  j = 12
hit on layer 4: 2
y1 position : 41.6501  j = 8
y2 position : 41.645  j = 9
hit on layer 4: 2
y1 position : 44.4581  j = 7
y2 position : 44.4615  j = 8
hit on layer 4: 2
y1 position : 22.0745  j = 1
y2 position : 22.0757  j = 2
hit on layer 4: 2
y1 position : 575.537  j = 7
y2 position : 575.552  j = 8
hit on layer 4: 2
y1 position : -142.201  j = 5
y2 position : -142.206  j = 6
hit on layer 4: 2
y1 position : 112.934  j = 7
y2 position : 112.944  j = 8
hit on layer 4: 2
y1 position : -352.371  j = 1
y2 position : -352.386  j = 2
hit on layer 4: 2
y1 position : 87.0759  j = 0
y2 position : 87.0916  j = 1
hit on layer 4: 2
y1 position : -75.8792  j = 3
y2 position : -75.8856  j = 4
hit on layer 4: 2
y1 position : 39.3871  j = 8
y2 position : 39.3932  j = 9
hit on layer 4: 2
y1 position : -73.2755  j = 9
y2 position : -73.2929  j = 10
hit on layer 4: 2
y1 position : -80.1388  j = 7
y2 position : -80.1466  j = 8
hit on layer 4: 2
y1 position : -353.755  j = 7
y2 position : -353.772  j = 8
hit on layer 4: 2
y1 position : -222.02  j = 7
y2 position : -222.033  j = 8
hit on layer 4: 3
y1 position : -735.929  j = 2
y2 position : -736.195  j = 3
y3 position : -736.323  j = 4
hit on layer 4: 2
y1 position : 152.192  j = 7
y2 position : 152.206  j = 8
hit on layer 4: 2
y1 position : 1365.27  j = 7
y2 position : 1365.43  j = 8
hit on layer 4: 2
y1 position : -91.6654  j = 7
y2 position : -91.6717  j = 8
hit on layer 4: 2
y1 position : -54.8756  j = 8
y2 position : -54.8799  j = 9
hit on layer 4: 3
y1 position : -89.772  j = 7
y2 position : -89.771  j = 8
y3 position : -89.7581  j = 9
hit on layer 4: 2
y1 position : 29.0829  j = 7
y2 position : 29.098  j = 8
hit on layer 4: 2
y1 position : -6.9366  j = 1
y2 position : -87.0685  j = 13
hit on layer 4: 2
y1 position : 1228.78  j = 4
y2 position : 1228.95  j = 5
hit on layer 4: 3
y1 position : 756.597  j = 4
y2 position : 1078.81  j = 7
y3 position : 1099.78  j = 8
hit on layer 4: 2
y1 position : -1136.58  j = 7
y2 position : -1136.76  j = 8
hit on layer 4: 3
y1 position : 222.294  j = 0
y2 position : 2.0689  j = 11
y3 position : -9.3844  j = 12
hit on layer 4: 2
y1 position : -1153.44  j = 4
y2 position : 275.419  j = 19
hit on layer 4: 2
y1 position : 37.0348  j = 6
y2 position : 37.035  j = 7
hit on layer 4: 2
y1 position : 558.491  j = 4
y2 position : 558.53  j = 5
hit on layer 4: 2
y1 position : -20.5535  j = 8
y2 position : -20.5452  j = 9
hit on layer 4: 4
y1 position : -185.596  j = 1
y2 position : -141.599  j = 11
y3 position : -194.118  j = 14
y4 position : -286.093  j = 15
hit on layer 4: 2
y1 position : 113.333  j = 4
y2 position : -1565.61  j = 15
hit on layer 4: 2
y1 position : 683.442  j = 7
y2 position : 683.74  j = 8
hit on layer 4: 2
y1 position : 1063.67  j = 6
y2 position : 1063.74  j = 7
hit on layer 4: 2
y1 position : 447.18  j = 7
y2 position : 447.226  j = 8
hit on layer 4: 2
y1 position : -17.0236  j = 3
y2 position : -17.0268  j = 4
hit on layer 4: 2
y1 position : 137.327  j = 7
y2 position : 137.343  j = 8
hit on layer 4: 2
y1 position : 112.642  j = 7
y2 position : 112.66  j = 8
hit on layer 4: 2
y1 position : -814.678  j = 7
y2 position : -814.763  j = 8
hit on layer 4: 2
y1 position : 137.527  j = 5
y2 position : 137.557  j = 6
hit on layer 4: 2
y1 position : 925.612  j = 10
y2 position : 998.339  j = 13
hit on layer 4: 2
y1 position : -59.6183  j = 8
y2 position : -59.6189  j = 9
hit on layer 4: 2
y1 position : -292.082  j = 7
y2 position : -292.117  j = 8
hit on layer 4: 2
y1 position : -100.35  j = 7
y2 position : -100.358  j = 8
hit on layer 4: 2
y1 position : 744.363  j = 3
y2 position : -603.204  j = 12
hit on layer 4: 2
y1 position : -251.167  j = 7
y2 position : -251.167  j = 8
hit on layer 4: 2
y1 position : -56.9838  j = 9
y2 position : -56.989  j = 10
hit on layer 4: 2
y1 position : -724.239  j = 9
y2 position : -724.243  j = 10
hit on layer 4: 2
y1 position : 1855.66  j = 7
y2 position : 1855.89  j = 8
hit on layer 4: 2
y1 position : -242.674  j = 7
y2 position : -242.699  j = 8
hit on layer 4: 2
y1 position : 89.1127  j = 8
y2 position : 89.1253  j = 9
hit on layer 4: 4
y1 position : -12.0957  j = 7
y2 position : -673.866  j = 19
y3 position : -678.77  j = 20
y4 position : -728.589  j = 21
hit on layer 4: 2
y1 position : -732.361  j = 6
y2 position : -732.483  j = 7
hit on layer 4: 2
y1 position : 236.968  j = 8
y2 position : 237.115  j = 9
hit on layer 4: 2
y1 position : -1164.41  j = 6
y2 position : -1164.32  j = 7
hit on layer 4: 2
y1 position : -13.6073  j = 6
y2 position : -13.6046  j = 7
hit on layer 4: 2
y1 position : 290.567  j = 7
y2 position : 290.578  j = 8
hit on layer 4: 2
y1 position : -1026.46  j = 4
y2 position : -1026.38  j = 5
hit on layer 4: 2
y1 position : -1444.5  j = 0
y2 position : -1444.68  j = 1
hit on layer 4: 3
y1 position : -1247.52  j = 3
y2 position : -1248.96  j = 4
y3 position : -1250.11  j = 5
hit on layer 4: 2
y1 position : -38.8934  j = 7
y2 position : -38.9211  j = 8
hit on layer 4: 2
y1 position : 94.3969  j = 7
y2 position : 94.4074  j = 8
hit on layer 4: 2
y1 position : 101.336  j = 8
y2 position : 101.344  j = 9
hit on layer 4: 2
y1 position : 4.1671  j = 6
y2 position : 4.1684  j = 7
hit on layer 4: 2
y1 position : 3.502  j = 4
y2 position : 3.5028  j = 5
hit on layer 4: 2
y1 position : 361.351  j = 1
y2 position : 361.378  j = 2
hit on layer 4: 2
y1 position : -362.902  j = 4
y2 position : -362.904  j = 5
hit on layer 4: 2
y1 position : 98.0697  j = 4
y2 position : -939.925  j = 13
hit on layer 4: 2
y1 position : -692.615  j = 8
y2 position : -692.627  j = 9
hit on layer 4: 2
y1 position : -94.3723  j = 1
y2 position : -94.3738  j = 2
hit on layer 4: 2
y1 position : -195.076  j = 7
y2 position : -195.101  j = 8
hit on layer 4: 2
y1 position : -40.0573  j = 3
y2 position : -40.063  j = 4
hit on layer 4: 6
y1 position : -31.8737  j = 0
y2 position : 102.13  j = 6
y3 position : 82.7931  j = 7
y4 position : -81.6267  j = 8
y5 position : -124.219  j = 9
y6 position : -161.579  j = 10
hit on layer 4: 2
y1 position : 216.562  j = 7
y2 position : 216.57  j = 8
hit on layer 4: 2
y1 position : -70.1808  j = 3
y2 position : -70.1663  j = 4
hit on layer 4: 2
y1 position : -331.218  j = 7
y2 position : -331.247  j = 8
hit on layer 4: 2
y1 position : -126.44  j = 2
y2 position : -126.444  j = 3
hit on layer 4: 2
y1 position : -95.2892  j = 8
y2 position : -95.3004  j = 9
hit on layer 4: 4
y1 position : -18.9025  j = 2
y2 position : -198.589  j = 11
y3 position : -378.83  j = 12
y4 position : -812.876  j = 13
hit on layer 4: 2
y1 position : -537.956  j = 7
y2 position : -537.984  j = 8
hit on layer 4: 2
y1 position : -176.2  j = 7
y2 position : -176.206  j = 8
hit on layer 4: 2
y1 position : -1032.45  j = 7
y2 position : -1032.47  j = 8
hit on layer 4: 2
y1 position : 270.437  j = 3
y2 position : -491.866  j = 11
hit on layer 4: 2
y1 position : -289.61  j = 8
y2 position : -289.623  j = 9
hit on layer 4: 2
y1 position : -29.9359  j = 7
y2 position : -29.9374  j = 8
hit on layer 4: 2
y1 position : -494.542  j = 0
y2 position : 1009.86  j = 9
hit on layer 4: 4
y1 position : 21.224  j = 3
y2 position : -240.287  j = 12
y3 position : -282.478  j = 17
y4 position : -245.212  j = 18
hit on layer 4: 2
y1 position : -39.257  j = 8
y2 position : -39.2603  j = 9
hit on layer 4: 2
y1 position : -73.159  j = 6
y2 position : -73.1655  j = 7
hit on layer 4: 2
y1 position : -49.3456  j = 7
y2 position : -49.3471  j = 8
hit on layer 4: 2
y1 position : -137.719  j = 7
y2 position : -137.725  j = 8
hit on layer 4: 3
y1 position : 103.318  j = 8
y2 position : 221.899  j = 16
y3 position : 290.387  j = 17
hit on layer 4: 2
y1 position : -54.3523  j = 9
y2 position : -54.3468  j = 10
hit on layer 4: 2
y1 position : -241.435  j = 8
y2 position : -241.557  j = 9
hit on layer 4: 2
y1 position : -8.3817  j = 7
y2 position : -8.3839  j = 8
hit on layer 4: 2
y1 position : -155.687  j = 7
y2 position : -155.696  j = 8
hit on layer 4: 2
y1 position : -162.682  j = 7
y2 position : -162.684  j = 8
hit on layer 4: 2
y1 position : -1298.23  j = 0
y2 position : -199.8  j = 16
hit on layer 4: 2
y1 position : 303.971  j = 7
y2 position : 303.995  j = 8
hit on layer 4: 2
y1 position : 38.9645  j = 7
y2 position : 38.9684  j = 8
hit on layer 4: 2
y1 position : -95.1007  j = 1
y2 position : -95.0616  j = 2
hit on layer 4: 2
y1 position : 55.1581  j = 7
y2 position : 55.1654  j = 8
hit on layer 4: 2
y1 position : 10.6968  j = 3
y2 position : 10.6961  j = 4
hit on layer 4: 2
y1 position : 167.139  j = 7
y2 position : 167.14  j = 8
hit on layer 4: 2
y1 position : -64.8148  j = 8
y2 position : -64.8218  j = 9
hit on layer 4: 2
y1 position : -653.933  j = 6
y2 position : -653.994  j = 7
hit on layer 4: 2
y1 position : -84.1163  j = 7
y2 position : -84.118  j = 8
hit on layer 4: 3
y1 position : -844.115  j = 4
y2 position : -963.429  j = 20
y3 position : 850.74  j = 29
hit on layer 4: 2
y1 position : 59.6286  j = 3
y2 position : 59.5802  j = 4
hit on layer 4: 2
y1 position : 559.623  j = 0
y2 position : 559.687  j = 1
hit on layer 4: 2
y1 position : -743.187  j = 6
y2 position : -743.238  j = 7
hit on layer 4: 2
y1 position : -139.146  j = 3
y2 position : -139.25  j = 4
hit on layer 4: 5
y1 position : 125.021  j = 1
y2 position : -456.221  j = 6
y3 position : -384.453  j = 7
y4 position : 468.983  j = 8
y5 position : 497.952  j = 9
hit on layer 4: 2
y1 position : -162.801  j = 7
y2 position : -162.816  j = 8
hit on layer 4: 2
y1 position : -307.602  j = 6
y2 position : -307.632  j = 7
hit on layer 4: 2
y1 position : 64.7499  j = 7
y2 position : 64.7598  j = 8
hit on layer 4: 2
y1 position : 313.923  j = 0
y2 position : 313.932  j = 1
hit on layer 4: 2
y1 position : 135.703  j = 9
y2 position : 135.711  j = 10
hit on layer 4: 2
y1 position : -31.7677  j = 7
y2 position : -31.7764  j = 8
hit on layer 4: 2
y1 position : -140.726  j = 8
y2 position : -140.787  j = 9
hit on layer 4: 2
y1 position : 1107.57  j = 4
y2 position : 1108.87  j = 5
hit on layer 4: 2
y1 position : 681.935  j = 8
y2 position : 681.974  j = 9
hit on layer 4: 2
y1 position : -549.849  j = 4
y2 position : -549.194  j = 5
hit on layer 4: 2
y1 position : 273.662  j = 8
y2 position : 273.683  j = 9
hit on layer 4: 3
y1 position : 1890.5  j = 4
y2 position : 1891.67  j = 5
y3 position : 1892.63  j = 6
hit on layer 4: 2
y1 position : -11.9766  j = 5
y2 position : -12.0128  j = 6
hit on layer 4: 2
y1 position : -29.9158  j = 1
y2 position : 541.75  j = 11
hit on layer 4: 2
y1 position : -10.3087  j = 3
y2 position : -10.2766  j = 4
hit on layer 4: 2
y1 position : -9.5839  j = 1
y2 position : -9.6006  j = 2
hit on layer 4: 2
y1 position : 126.338  j = 8
y2 position : 126.347  j = 9
hit on layer 4: 2
y1 position : 303.285  j = 5
y2 position : 303.31  j = 6
hit on layer 4: 2
y1 position : -1055.72  j = 8
y2 position : -1055.76  j = 9
hit on layer 4: 2
y1 position : 81.8162  j = 8
y2 position : 81.8371  j = 9
hit on layer 4: 2
y1 position : -406.59  j = 7
y2 position : -406.595  j = 8
hit on layer 4: 2
y1 position : -407.075  j = 7
y2 position : -407.093  j = 8
hit on layer 4: 2
y1 position : -1593.08  j = 0
y2 position : -1593.15  j = 1
hit on layer 4: 2
y1 position : -123.432  j = 0
y2 position : -123.457  j = 1
hit on layer 4: 2
y1 position : -589.651  j = 7
y2 position : -589.666  j = 8
hit on layer 4: 2
y1 position : 1099.24  j = 0
y2 position : -1143.59  j = 10
hit on layer 4: 2
y1 position : -506.531  j = 4
y2 position : -506.538  j = 5
hit on layer 4: 2
y1 position : 378.642  j = 7
y2 position : 378.678  j = 8
hit on layer 4: 2
y1 position : 338.953  j = 2
y2 position : 339.115  j = 3
hit on layer 4: 5
y1 position : 91.9028  j = 7
y2 position : 91.9031  j = 8
y3 position : 58.4972  j = 17
y4 position : 98.1385  j = 24
y5 position : 330.381  j = 27
hit on layer 4: 2
y1 position : -339.877  j = 8
y2 position : -339.919  j = 9
hit on layer 4: 2
y1 position : -140.942  j = 6
y2 position : -140.953  j = 7
hit on layer 4: 2
y1 position : 345.213  j = 8
y2 position : 345.25  j = 9
hit on layer 4: 2
y1 position : -243.943  j = 8
y2 position : -243.985  j = 9
hit on layer 4: 2
y1 position : -194.591  j = 7
y2 position : -194.612  j = 8
hit on layer 4: 2
y1 position : -66.0096  j = 10
y2 position : -317.605  j = 11
hit on layer 4: 2
y1 position : -489.238  j = 7
y2 position : -489.248  j = 8
hit on layer 4: 2
y1 position : -231.37  j = 8
y2 position : -231.378  j = 9
hit on layer 4: 2
y1 position : 123.419  j = 8
y2 position : 123.432  j = 9
hit on layer 4: 2
y1 position : 1006.73  j = 3
y2 position : 1006.84  j = 4
hit on layer 4: 2
y1 position : -245.696  j = 7
y2 position : -245.72  j = 8
hit on layer 4: 2
y1 position : -120.656  j = 4
y2 position : -120.664  j = 5
hit on layer 4: 2
y1 position : -205.056  j = 6
y2 position : -205.059  j = 7
hit on layer 4: 2
y1 position : 291.512  j = 5
y2 position : 291.719  j = 6
hit on layer 4: 5
y1 position : 146.317  j = 5
y2 position : 146.299  j = 6
y3 position : -63.8376  j = 15
y4 position : -208.999  j = 20
y5 position : -301.272  j = 21
hit on layer 4: 2
y1 position : -1557.53  j = 7
y2 position : -1557.72  j = 8
hit on layer 4: 2
y1 position : -1173.09  j = 6
y2 position : 1123.17  j = 19
hit on layer 4: 3
y1 position : -1222.81  j = 7
y2 position : -1222.83  j = 8
y3 position : -1222.84  j = 9
hit on layer 4: 2
y1 position : 186.482  j = 7
y2 position : 186.488  j = 8
hit on layer 4: 2
y1 position : 77.6636  j = 5
y2 position : 77.629  j = 6
hit on layer 4: 2
y1 position : -1021.56  j = 8
y2 position : -1021.69  j = 9
hit on layer 4: 2
y1 position : -403.652  j = 7
y2 position : -403.711  j = 8
hit on layer 4: 4
y1 position : 92.4524  j = 0
y2 position : -9.6622  j = 7
y3 position : -109.79  j = 11
y4 position : -266.014  j = 12
hit on layer 4: 2
y1 position : 920.153  j = 6
y2 position : 920.208  j = 7
hit on layer 4: 2
y1 position : 128.002  j = 7
y2 position : 128.043  j = 8
hit on layer 4: 2
y1 position : 188.639  j = 7
y2 position : 188.647  j = 8
hit on layer 4: 3
y1 position : 64.7385  j = 4
y2 position : 64.7528  j = 5
y3 position : 64.7674  j = 6
hit on layer 4: 2
y1 position : 257.054  j = 7
y2 position : 257.088  j = 8
hit on layer 4: 2
y1 position : -665.9  j = 7
y2 position : -665.992  j = 8
hit on layer 4: 2
y1 position : 143.454  j = 3
y2 position : 143.466  j = 4
hit on layer 4: 2
y1 position : 159.982  j = 8
y2 position : 159.989  j = 9
hit on layer 4: 2
y1 position : -15.091  j = 2
y2 position : -15.0914  j = 3
hit on layer 4: 2
y1 position : -244.764  j = 7
y2 position : -244.782  j = 8
hit on layer 4: 2
y1 position : 326.606  j = 2
y2 position : 326.519  j = 3
hit on layer 4: 2
y1 position : -392.63  j = 0
y2 position : -392.661  j = 1
hit on layer 4: 2
y1 position : -230.112  j = 2
y2 position : -230.14  j = 3
hit on layer 4: 2
y1 position : -176.795  j = 5
y2 position : -176.786  j = 6
hit on layer 4: 2
y1 position : 248.368  j = 5
y2 position : 248.475  j = 6
hit on layer 4: 2
y1 position : -4.0052  j = 2
y2 position : -4.0052  j = 3
hit on layer 4: 2
y1 position : -127.243  j = 5
y2 position : -127.288  j = 6
hit on layer 4: 3
y1 position : -934.813  j = 7
y2 position : -934.881  j = 8
y3 position : -934.937  j = 9
hit on layer 4: 2
y1 position : 107.334  j = 7
y2 position : 107.343  j = 8
hit on layer 4: 2
y1 position : -8.0612  j = 7
y2 position : -8.0617  j = 8
hit on layer 4: 2
y1 position : -866.726  j = 1
y2 position : -779.261  j = 15
hit on layer 4: 2
y1 position : -27.8322  j = 6
y2 position : -27.8404  j = 7
hit on layer 4: 2
y1 position : -480.417  j = 7
y2 position : -480.453  j = 8
hit on layer 4: 2
y1 position : -1681.73  j = 4
y2 position : -1683.44  j = 5
hit on layer 4: 2
y1 position : -34.0076  j = 8
y2 position : -34.0091  j = 9
hit on layer 4: 2
y1 position : 403.803  j = 5
y2 position : 403.846  j = 6
hit on layer 4: 2
y1 position : 66.4529  j = 8
y2 position : 66.4571  j = 9
hit on layer 4: 2
y1 position : -71.3126  j = 4
y2 position : -2174.84  j = 11
hit on layer 4: 2
y1 position : 80.0864  j = 4
y2 position : 80.1012  j = 5
hit on layer 4: 2
y1 position : 621.332  j = 8
y2 position : 621.365  j = 9
hit on layer 4: 2
y1 position : -72.1216  j = 2
y2 position : 175.312  j = 11
hit on layer 4: 2
y1 position : 872.716  j = 10
y2 position : 872.257  j = 11
hit on layer 4: 2
y1 position : -134.205  j = 7
y2 position : -134.232  j = 8
hit on layer 4: 2
y1 position : 277.284  j = 7
y2 position : 277.298  j = 8
hit on layer 4: 2
y1 position : 648.308  j = 1
y2 position : 648.352  j = 2
hit on layer 4: 2
y1 position : 517.417  j = 0
y2 position : 517.521  j = 1
hit on layer 4: 2
y1 position : 499.673  j = 7
y2 position : 499.722  j = 8
hit on layer 4: 2
y1 position : 48.3707  j = 7
y2 position : 48.372  j = 8
hit on layer 4: 2
y1 position : 809.372  j = 2
y2 position : 809.469  j = 3
hit on layer 4: 2
y1 position : -175.325  j = 5
y2 position : -175.351  j = 6
hit on layer 4: 2
y1 position : -61.4154  j = 6
y2 position : -61.4067  j = 7
hit on layer 4: 2
y1 position : 87.3009  j = 7
y2 position : 87.3037  j = 8
hit on layer 4: 2
y1 position : -311.647  j = 7
y2 position : -311.666  j = 8
hit on layer 4: 2
y1 position : 182.338  j = 7
y2 position : 182.351  j = 8
hit on layer 4: 2
y1 position : -119.989  j = 1
y2 position : -119.999  j = 2
hit on layer 4: 2
y1 position : 247.235  j = 7
y2 position : 247.249  j = 8
hit on layer 4: 2
y1 position : -369.488  j = 1
y2 position : -369.555  j = 2
hit on layer 4: 2
y1 position : -194.195  j = 1
y2 position : -194.218  j = 2
hit on layer 4: 2
y1 position : -891.709  j = 7
y2 position : -891.721  j = 8
hit on layer 4: 2
y1 position : -346.839  j = 3
y2 position : -346.884  j = 4
hit on layer 4: 2
y1 position : 259.434  j = 1
y2 position : 259.455  j = 2
hit on layer 4: 2
y1 position : -550.145  j = 1
y2 position : -550.194  j = 2
hit on layer 4: 2
y1 position : 328.7  j = 1
y2 position : 328.725  j = 2
hit on layer 4: 2
y1 position : -312.183  j = 1
y2 position : -312.195  j = 2
hit on layer 4: 2
y1 position : -113.926  j = 9
y2 position : -113.938  j = 10
hit on layer 4: 2
y1 position : 9.9644  j = 4
y2 position : 9.9768  j = 5
hit on layer 4: 3
y1 position : 50.971  j = 7
y2 position : -356.888  j = 17
y3 position : -389.441  j = 18
hit on layer 4: 2
y1 position : -254.096  j = 1
y2 position : -255.108  j = 2
hit on layer 4: 2
y1 position : -25.6404  j = 7
y2 position : -25.6264  j = 8
hit on layer 4: 2
y1 position : 34.9782  j = 0
y2 position : 34.9928  j = 1
hit on layer 4: 2
y1 position : 19.9259  j = 9
y2 position : 19.9269  j = 10
hit on layer 4: 2
y1 position : 42.1639  j = 3
y2 position : 42.1667  j = 4
hit on layer 4: 2
y1 position : 332.091  j = 0
y2 position : 332.122  j = 1
hit on layer 4: 2
y1 position : -119.688  j = 8
y2 position : -119.692  j = 9
hit on layer 4: 2
y1 position : 1053  j = 7
y2 position : 1053.13  j = 8
hit on layer 4: 5
y1 position : 261.85  j = 0
y2 position : -1097.54  j = 12
y3 position : -1097.66  j = 13
y4 position : -1099.52  j = 14
y5 position : -1101.78  j = 15
hit on layer 4: 2
y1 position : 496.68  j = 7
y2 position : 496.693  j = 8
hit on layer 4: 2
y1 position : 9.9471  j = 5
y2 position : 9.9575  j = 6
hit on layer 4: 2
y1 position : -62.9642  j = 7
y2 position : -62.9514  j = 8
hit on layer 4: 2
y1 position : -233.445  j = 5
y2 position : -233.55  j = 6
hit on layer 4: 2
y1 position : 162.518  j = 2
y2 position : 162.534  j = 3
hit on layer 4: 2
y1 position : -77.8061  j = 2
y2 position : 269.659  j = 12
hit on layer 4: 3
y1 position : -166.745  j = 8
y2 position : -166.746  j = 9
y3 position : -166.749  j = 10
hit on layer 4: 2
y1 position : 167.42  j = 3
y2 position : -550.435  j = 12
hit on layer 4: 2
y1 position : -187.307  j = 7
y2 position : -187.327  j = 8
hit on layer 4: 2
y1 position : 375.393  j = 5
y2 position : 375.651  j = 6
hit on layer 4: 2
y1 position : -1229.41  j = 3
y2 position : 1287.55  j = 12
hit on layer 4: 2
y1 position : -156.687  j = 3
y2 position : -156.72  j = 4
hit on layer 4: 2
y1 position : -154.637  j = 0
y2 position : -154.85  j = 1
hit on layer 4: 2
y1 position : -975.721  j = 1
y2 position : -975.784  j = 2
hit on layer 4: 2
y1 position : 1368.05  j = 0
y2 position : 1368.08  j = 1
hit on layer 4: 2
y1 position : 1367.48  j = 0
y2 position : 1367.49  j = 1
hit on layer 4: 2
y1 position : 204.347  j = 7
y2 position : 204.515  j = 8
hit on layer 4: 2
y1 position : -65.3942  j = 7
y2 position : -65.4824  j = 8
hit on layer 4: 2
y1 position : 146.961  j = 7
y2 position : 146.964  j = 8
hit on layer 4: 2
y1 position : 139.88  j = 7
y2 position : 139.89  j = 8
hit on layer 4: 5
y1 position : -367.588  j = 4
y2 position : -350.374  j = 5
y3 position : 218.922  j = 6
y4 position : 309.993  j = 7
y5 position : 318.037  j = 8
hit on layer 4: 2
y1 position : 414.391  j = 6
y2 position : 414.4  j = 7
hit on layer 4: 2
y1 position : 158.324  j = 7
y2 position : 158.327  j = 8
hit on layer 4: 2
y1 position : -426.093  j = 7
y2 position : -426.127  j = 8
hit on layer 4: 2
y1 position : -501.669  j = 4
y2 position : -342.425  j = 5
hit on layer 4: 2
y1 position : -128.512  j = 9
y2 position : -128.533  j = 10
hit on layer 4: 2
y1 position : 595.757  j = 9
y2 position : 595.762  j = 10
hit on layer 4: 2
y1 position : -174.727  j = 2
y2 position : -175.094  j = 3
hit on layer 4: 2
y1 position : 700.958  j = 7
y2 position : 701.048  j = 8
hit on layer 4: 2
y1 position : -74.3055  j = 7
y2 position : -74.3101  j = 8
hit on layer 4: 2
y1 position : 71.6713  j = 9
y2 position : 71.6744  j = 10
hit on layer 4: 2
y1 position : 1011.06  j = 4
y2 position : 1010.37  j = 5
hit on layer 4: 4
y1 position : 166.962  j = 3
y2 position : -149.221  j = 14
y3 position : -174.669  j = 20
y4 position : -222.009  j = 21
hit on layer 4: 2
y1 position : 23.1741  j = 9
y2 position : 23.1768  j = 10
hit on layer 4: 2
y1 position : 188.588  j = 8
y2 position : 188.596  j = 9
hit on layer 4: 2
y1 position : 109.859  j = 8
y2 position : 109.859  j = 9
hit on layer 4: 2
y1 position : 124.473  j = 3
y2 position : 124.488  j = 4
hit on layer 4: 2
y1 position : 98.2844  j = 2
y2 position : -1063.19  j = 11
hit on layer 4: 2
y1 position : 327.206  j = 1
y2 position : -1036.06  j = 10
hit on layer 4: 2
y1 position : 133.438  j = 9
y2 position : 133.451  j = 10
hit on layer 4: 2
y1 position : 193.658  j = 8
y2 position : 193.663  j = 9
hit on layer 4: 2
y1 position : 275.459  j = 1
y2 position : 275.483  j = 2
hit on layer 4: 2
y1 position : 386.081  j = 0
y2 position : -582.83  j = 9
hit on layer 4: 2
y1 position : -144.576  j = 7
y2 position : -144.597  j = 8
hit on layer 4: 2
y1 position : 135.27  j = 8
y2 position : 135.277  j = 9
hit on layer 4: 2
y1 position : 111.701  j = 3
y2 position : 111.738  j = 4
hit on layer 4: 2
y1 position : 495.7  j = 5
y2 position : 495.853  j = 6
hit on layer 4: 2
y1 position : 143.214  j = 8
y2 position : 143.222  j = 9
hit on layer 4: 2
y1 position : -431.449  j = 7
y2 position : -431.545  j = 8
hit on layer 4: 2
y1 position : -133.556  j = 7
y2 position : -133.559  j = 8
hit on layer 4: 2
y1 position : -206.132  j = 7
y2 position : -206.19  j = 8
hit on layer 4: 2
y1 position : 87.0214  j = 7
y2 position : 87.0213  j = 8
hit on layer 4: 2
y1 position : 226.326  j = 5
y2 position : 226.338  j = 6
hit on layer 4: 2
y1 position : 201.558  j = 0
y2 position : 201.573  j = 1
hit on layer 4: 2
y1 position : 189.744  j = 8
y2 position : 189.767  j = 9
hit on layer 4: 2
y1 position : -108.761  j = 6
y2 position : -108.765  j = 7
hit on layer 4: 2
y1 position : -102.682  j = 8
y2 position : -102.689  j = 9
hit on layer 4: 2
y1 position : -365.981  j = 7
y2 position : -365.993  j = 8
hit on layer 4: 2
y1 position : 355.126  j = 6
y2 position : 355.173  j = 7
hit on layer 4: 2
y1 position : -555.699  j = 2
y2 position : 964.708  j = 14
hit on layer 4: 2
y1 position : 277.944  j = 7
y2 position : 277.956  j = 8
hit on layer 4: 2
y1 position : -91.8082  j = 1
y2 position : -91.8096  j = 2
hit on layer 4: 2
y1 position : -287.349  j = 7
y2 position : -287.355  j = 8
hit on layer 4: 2
y1 position : -116.709  j = 7
y2 position : -116.722  j = 8
hit on layer 4: 2
y1 position : 169.907  j = 6
y2 position : 169.985  j = 7
hit on layer 4: 2
y1 position : 193.792  j = 2
y2 position : 193.819  j = 3
hit on layer 4: 2
y1 position : 1407.26  j = 3
y2 position : 1407.29  j = 4
hit on layer 4: 2
y1 position : -48.0384  j = 3
y2 position : -48.0377  j = 4
hit on layer 4: 2
y1 position : 229.917  j = 7
y2 position : 229.937  j = 8
hit on layer 4: 3
y1 position : 1691.85  j = 4
y2 position : 1692.24  j = 5
y3 position : 1692.55  j = 6
hit on layer 4: 2
y1 position : -215.598  j = 1
y2 position : -215.619  j = 2
hit on layer 4: 2
y1 position : -66.6111  j = 4
y2 position : -66.6057  j = 5
hit on layer 4: 2
y1 position : -236.823  j = 7
y2 position : -236.841  j = 8
hit on layer 4: 2
y1 position : 2240.57  j = 4
y2 position : 2241.39  j = 5
hit on layer 4: 2
y1 position : -178.801  j = 7
y2 position : -178.815  j = 8
hit on layer 4: 2
y1 position : -518.036  j = 8
y2 position : -518.037  j = 9
hit on layer 4: 2
y1 position : -147.608  j = 6
y2 position : -147.648  j = 7
hit on layer 4: 2
y1 position : -89.9844  j = 9
y2 position : -89.9858  j = 10
hit on layer 4: 4
y1 position : -159.053  j = 1
y2 position : -163.366  j = 10
y3 position : -182.422  j = 19
y4 position : -96.5696  j = 20
hit on layer 4: 2
y1 position : 137.47  j = 4
y2 position : 137.51  j = 5
hit on layer 4: 2
y1 position : 103.219  j = 3
y2 position : 103.228  j = 4
hit on layer 4: 2
y1 position : 55.7468  j = 3
y2 position : 55.7378  j = 4
hit on layer 4: 2
y1 position : -1502.46  j = 5
y2 position : -1502.23  j = 6
hit on layer 4: 2
y1 position : 193.531  j = 7
y2 position : 193.534  j = 8
hit on layer 4: 2
y1 position : -28.9654  j = 7
y2 position : -28.9684  j = 8
hit on layer 4: 2
y1 position : -66.7273  j = 1
y2 position : -66.7333  j = 2
hit on layer 4: 2
y1 position : 77.5901  j = 8
y2 position : 77.5921  j = 9
hit on layer 4: 2
y1 position : -1475.65  j = 1
y2 position : -1475.84  j = 2
hit on layer 4: 2
y1 position : -21.1318  j = 3
y2 position : -21.119  j = 4
hit on layer 4: 2
y1 position : 11.2473  j = 3
y2 position : 11.3072  j = 4
hit on layer 4: 2
y1 position : 102.686  j = 7
y2 position : 102.692  j = 8
hit on layer 4: 2
y1 position : -265.806  j = 3
y2 position : -265.81  j = 4
hit on layer 4: 2
y1 position : 55.5426  j = 7
y2 position : 55.5451  j = 8
hit on layer 4: 2
y1 position : 201.479  j = 7
y2 position : 201.508  j = 8
hit on layer 4: 2
y1 position : 24.1543  j = 7
y2 position : 24.1548  j = 8
hit on layer 4: 2
y1 position : 280.845  j = 7
y2 position : 280.888  j = 8
hit on layer 4: 2
y1 position : -538.5  j = 7
y2 position : -538.804  j = 8
hit on layer 4: 2
y1 position : 255.398  j = 6
y2 position : 255.399  j = 7
hit on layer 4: 2
y1 position : 914.479  j = 7
y2 position : 914.621  j = 8
hit on layer 4: 2
y1 position : 521.827  j = 2
y2 position : 521.939  j = 3
hit on layer 4: 2
y1 position : -67.6331  j = 7
y2 position : -67.6378  j = 8
hit on layer 4: 2
y1 position : 351.244  j = 0
y2 position : -908.112  j = 10
hit on layer 4: 2
y1 position : 957.465  j = 6
y2 position : 956.906  j = 7
hit on layer 4: 2
y1 position : 1907.18  j = 7
y2 position : 1907.21  j = 8
hit on layer 4: 2
y1 position : 83.9484  j = 7
y2 position : 83.9751  j = 8
hit on layer 4: 2
y1 position : -187.803  j = 7
y2 position : -187.811  j = 8
hit on layer 4: 2
y1 position : -190.404  j = 7
y2 position : -190.416  j = 8
hit on layer 4: 2
y1 position : -96.1784  j = 7
y2 position : -96.1777  j = 8
hit on layer 4: 2
y1 position : 34.6157  j = 6
y2 position : 34.6189  j = 7
hit on layer 4: 6
y1 position : -792.404  j = 5
y2 position : 796.76  j = 15
y3 position : 828.589  j = 16
y4 position : 987.711  j = 17
y5 position : 924.566  j = 18
y6 position : 1002.83  j = 19
hit on layer 4: 2
y1 position : 99.4185  j = 3
y2 position : 99.4634  j = 4
hit on layer 4: 2
y1 position : 754.29  j = 6
y2 position : 754.386  j = 7
hit on layer 4: 2
y1 position : 369.497  j = 5
y2 position : 369.523  j = 6
hit on layer 4: 2
y1 position : 353.233  j = 7
y2 position : 353.262  j = 8
hit on layer 4: 2
y1 position : -374.471  j = 4
y2 position : -374.506  j = 5
hit on layer 4: 2
y1 position : 102.874  j = 6
y2 position : 102.891  j = 7
hit on layer 4: 2
y1 position : -1447.3  j = 4
y2 position : -1545.65  j = 19
hit on layer 4: 2
y1 position : 172.464  j = 1
y2 position : 484.551  j = 13
hit on layer 4: 2
y1 position : 58.8609  j = 7
y2 position : 58.8625  j = 8
hit on layer 4: 2
y1 position : 73.7159  j = 7
y2 position : 73.7209  j = 8
hit on layer 4: 2
y1 position : 200.141  j = 3
y2 position : 200.255  j = 4
hit on layer 4: 2
y1 position : 146.976  j = 7
y2 position : 146.986  j = 8
hit on layer 4: 2
y1 position : -72.5134  j = 7
y2 position : -72.5125  j = 8
hit on layer 4: 2
y1 position : 486.709  j = 3
y2 position : 486.572  j = 4
hit on layer 4: 2
y1 position : 11.5167  j = 0
y2 position : 11.5175  j = 1
hit on layer 4: 2
y1 position : 1537.57  j = 8
y2 position : 1537.61  j = 9
hit on layer 4: 2
y1 position : -630.725  j = 5
y2 position : -632.031  j = 6
hit on layer 4: 2
y1 position : -67.1517  j = 4
y2 position : -67.1565  j = 5
hit on layer 4: 2
y1 position : -1883.46  j = 4
y2 position : -668.52  j = 19
hit on layer 4: 2
y1 position : 39.4148  j = 7
y2 position : 39.4155  j = 8
hit on layer 4: 2
y1 position : -136.51  j = 8
y2 position : -136.521  j = 9
hit on layer 4: 2
y1 position : 163.594  j = 7
y2 position : 163.598  j = 8
hit on layer 4: 2
y1 position : -712.602  j = 4
y2 position : -713.205  j = 5
hit on layer 4: 2
y1 position : 41.7878  j = 7
y2 position : 41.8294  j = 8
hit on layer 4: 2
y1 position : -36.7793  j = 7
y2 position : -36.7804  j = 8
hit on layer 4: 2
y1 position : -43.9066  j = 5
y2 position : -43.8891  j = 6
hit on layer 4: 2
y1 position : -135.699  j = 6
y2 position : -135.718  j = 7
hit on layer 4: 2
y1 position : -413.234  j = 7
y2 position : -413.278  j = 8
hit on layer 4: 2
y1 position : -737.803  j = 4
y2 position : -738.991  j = 5
hit on layer 4: 2
y1 position : -1736.84  j = 7
y2 position : -1736.88  j = 8
hit on layer 4: 2
y1 position : 81.6062  j = 7
y2 position : 81.6087  j = 8
hit on layer 4: 2
y1 position : -34.9747  j = 7
y2 position : -34.9743  j = 8
hit on layer 4: 2
y1 position : 619.874  j = 6
y2 position : 619.969  j = 7
hit on layer 4: 2
y1 position : -57.222  j = 3
y2 position : -57.2247  j = 4
hit on layer 4: 2
y1 position : -21.5031  j = 7
y2 position : -21.5083  j = 8
hit on layer 4: 2
y1 position : 51.1334  j = 7
y2 position : 51.1344  j = 8
hit on layer 4: 2
y1 position : -650.159  j = 11
y2 position : 600.635  j = 12
hit on layer 4: 2
y1 position : 89.6068  j = 8
y2 position : 89.5531  j = 9
hit on layer 4: 2
y1 position : -1388.58  j = 7
y2 position : -1388.72  j = 8
hit on layer 4: 2
y1 position : 731.291  j = 1
y2 position : 731.599  j = 2
hit on layer 4: 2
y1 position : 585.164  j = 8
y2 position : 584.953  j = 9
hit on layer 4: 2
y1 position : 190.618  j = 2
y2 position : 1306.79  j = 17
hit on layer 4: 2
y1 position : -85.3175  j = 8
y2 position : -85.3287  j = 9
hit on layer 4: 2
y1 position : 121.488  j = 7
y2 position : 121.494  j = 8
hit on layer 4: 2
y1 position : 46.0295  j = 7
y2 position : 46.0271  j = 8
hit on layer 4: 2
y1 position : 92.1566  j = 2
y2 position : 92.1577  j = 3
hit on layer 4: 2
y1 position : 84.1912  j = 7
y2 position : 84.1995  j = 8
hit on layer 4: 2
y1 position : -86.4043  j = 5
y2 position : -86.4013  j = 6
hit on layer 4: 2
y1 position : -118.191  j = 7
y2 position : -118.192  j = 8
hit on layer 4: 2
y1 position : -262.023  j = 5
y2 position : -262.026  j = 6
hit on layer 4: 2
y1 position : -636.849  j = 7
y2 position : -636.891  j = 8
hit on layer 4: 2
y1 position : 1358.06  j = 0
y2 position : 1359.1  j = 1
hit on layer 4: 2
y1 position : -307.982  j = 2
y2 position : 1001.29  j = 12
hit on layer 4: 2
y1 position : 109.974  j = 3
y2 position : 109.976  j = 4
hit on layer 4: 2
y1 position : 391.694  j = 8
y2 position : 391.712  j = 9
hit on layer 4: 2
y1 position : 44.1631  j = 3
y2 position : 44.1674  j = 4
hit on layer 4: 2
y1 position : 34.3809  j = 7
y2 position : 34.3847  j = 8
hit on layer 4: 4
y1 position : 118.298  j = 3
y2 position : 95.6104  j = 12
y3 position : 69.5512  j = 17
y4 position : 180.744  j = 18
hit on layer 4: 2
y1 position : 216.218  j = 4
y2 position : 216.236  j = 5
hit on layer 4: 2
y1 position : 167.902  j = 7
y2 position : 167.928  j = 8
hit on layer 4: 2
y1 position : -108.636  j = 7
y2 position : -108.655  j = 8
hit on layer 4: 2
y1 position : -90.2121  j = 4
y2 position : -90.2154  j = 5
hit on layer 4: 2
y1 position : -1914.5  j = 6
y2 position : -1914.62  j = 7
hit on layer 4: 2
y1 position : 939.328  j = 7
y2 position : 939.43  j = 8
hit on layer 4: 4
y1 position : -548.685  j = 5
y2 position : -506.585  j = 6
y3 position : -482.854  j = 7
y4 position : -426.301  j = 8
hit on layer 4: 2
y1 position : -771.739  j = 4
y2 position : -773.163  j = 5
hit on layer 4: 2
y1 position : 97.9549  j = 8
y2 position : 97.9657  j = 9
hit on layer 4: 2
y1 position : 107.134  j = 7
y2 position : 107.141  j = 8
hit on layer 4: 3
y1 position : 1066.58  j = 4
y2 position : 1050.71  j = 5
y3 position : 1051.53  j = 6
hit on layer 4: 2
y1 position : 1391.14  j = 4
y2 position : 756.778  j = 20
hit on layer 4: 2
y1 position : 199.255  j = 6
y2 position : 199.494  j = 7
hit on layer 4: 2
y1 position : -17.5517  j = 1
y2 position : -17.6095  j = 2
hit on layer 4: 2
y1 position : 20.6544  j = 0
y2 position : 20.6557  j = 1
hit on layer 4: 2
y1 position : 916.204  j = 2
y2 position : -1200.68  j = 10
hit on layer 4: 2
y1 position : 116.538  j = 7
y2 position : 116.548  j = 8
hit on layer 4: 2
y1 position : -141.051  j = 8
y2 position : -141.102  j = 9
hit on layer 4: 3
y1 position : 292.763  j = 0
y2 position : 292.865  j = 1
y3 position : 293.179  j = 2
hit on layer 4: 2
y1 position : -676.096  j = 9
y2 position : -676.125  j = 10
hit on layer 4: 2
y1 position : 276.163  j = 3
y2 position : 276.185  j = 4
hit on layer 4: 4
y1 position : 283.847  j = 3
y2 position : 1075.06  j = 17
y3 position : 1076.68  j = 18
y4 position : 1076.75  j = 19
hit on layer 4: 2
y1 position : 120.022  j = 9
y2 position : 120.024  j = 10
hit on layer 4: 2
y1 position : -71.3402  j = 7
y2 position : -71.346  j = 8
hit on layer 4: 2
y1 position : -1014.31  j = 4
y2 position : -1014.4  j = 5
hit on layer 4: 2
y1 position : 212.067  j = 7
y2 position : 212.082  j = 8
hit on layer 4: 2
y1 position : 461.277  j = 7
y2 position : 461.299  j = 8
hit on layer 4: 2
y1 position : 490.418  j = 3
y2 position : 490.423  j = 4
hit on layer 4: 2
y1 position : -983.05  j = 4
y2 position : -983.664  j = 5
hit on layer 4: 2
y1 position : 69.2856  j = 3
y2 position : 69.2839  j = 4
hit on layer 4: 2
y1 position : 681.764  j = 2
y2 position : 681.8  j = 3
hit on layer 4: 2
y1 position : -186.051  j = 8
y2 position : 445.943  j = 20
hit on layer 4: 2
y1 position : 118.791  j = 7
y2 position : 118.808  j = 8
hit on layer 4: 2
y1 position : 67.1946  j = 7
y2 position : 67.1992  j = 8
hit on layer 4: 2
y1 position : -204.013  j = 2
y2 position : 291.618  j = 10
hit on layer 4: 2
y1 position : -399.405  j = 7
y2 position : -399.443  j = 8
hit on layer 4: 4
y1 position : -399.443  j = 0
y2 position : 17.4005  j = 11
y3 position : 103.317  j = 14
y4 position : 135.886  j = 15
hit on layer 4: 2
y1 position : -500.134  j = 8
y2 position : -500.135  j = 9
hit on layer 4: 2
y1 position : 789.921  j = 4
y2 position : 789.929  j = 5
hit on layer 4: 2
y1 position : 1039.05  j = 7
y2 position : 1039.07  j = 8
hit on layer 4: 2
y1 position : 524.259  j = 7
y2 position : 524.283  j = 8
hit on layer 4: 2
y1 position : 64.5006  j = 4
y2 position : 64.5177  j = 5
hit on layer 4: 2
y1 position : 3.1128  j = 7
y2 position : 3.1126  j = 8
hit on layer 4: 2
y1 position : -88.4057  j = 3
y2 position : -88.4133  j = 4
hit on layer 4: 2
y1 position : 1033.92  j = 6
y2 position : 1034.03  j = 7
hit on layer 4: 2
y1 position : 61.7972  j = 7
y2 position : 61.8037  j = 8
hit on layer 4: 2
y1 position : 24.3481  j = 8
y2 position : 24.3484  j = 9
hit on layer 4: 2
y1 position : 173.197  j = 7
y2 position : 173.204  j = 8
hit on layer 4: 2
y1 position : 66.0374  j = 7
y2 position : 66.0414  j = 8
hit on layer 4: 2
y1 position : 62.2993  j = 8
y2 position : 62.3059  j = 9
hit on layer 4: 2
y1 position : -114.362  j = 6
y2 position : -114.426  j = 7
hit on layer 4: 2
y1 position : 102.622  j = 7
y2 position : 102.623  j = 8
hit on layer 4: 2
y1 position : -54.3433  j = 8
y2 position : -54.3528  j = 9
hit on layer 4: 2
y1 position : -373.446  j = 1
y2 position : -1946.29  j = 16
hit on layer 4: 5
y1 position : 198.493  j = 3
y2 position : -369.857  j = 14
y3 position : -475.854  j = 15
y4 position : -478.035  j = 16
y5 position : -775.261  j = 17
hit on layer 4: 2
y1 position : -168.738  j = 7
y2 position : -168.775  j = 8
hit on layer 4: 2
y1 position : 543.092  j = 7
y2 position : 543.128  j = 8
hit on layer 4: 2
y1 position : 99.7189  j = 7
y2 position : 99.7361  j = 8
hit on layer 4: 2
y1 position : -8.5969  j = 4
y2 position : -8.598  j = 5
hit on layer 4: 2
y1 position : 1145.38  j = 7
y2 position : 1142.51  j = 8
hit on layer 4: 2
y1 position : 54.1225  j = 3
y2 position : 54.1187  j = 4
hit on layer 4: 2
y1 position : 33.8074  j = 3
y2 position : 33.827  j = 4
hit on layer 4: 2
y1 position : 64.4349  j = 5
y2 position : 64.4923  j = 6
hit on layer 4: 2
y1 position : 523.3  j = 7
y2 position : 523.333  j = 8
hit on layer 4: 2
y1 position : -127.084  j = 7
y2 position : -127.095  j = 8
hit on layer 4: 2
y1 position : -12.2571  j = 5
y2 position : -12.2286  j = 6
hit on layer 4: 4
y1 position : 2346.71  j = 4
y2 position : 2347.4  j = 5
y3 position : 2347.95  j = 6
y4 position : 2348.39  j = 7
hit on layer 4: 2
y1 position : 213.195  j = 7
y2 position : 213.212  j = 8
hit on layer 4: 2
y1 position : -797.677  j = 3
y2 position : 907.849  j = 14
hit on layer 4: 2
y1 position : 619.229  j = 6
y2 position : 619.28  j = 7
hit on layer 4: 2
y1 position : 82.5636  j = 7
y2 position : 82.5668  j = 8
hit on layer 4: 6
y1 position : -331.191  j = 8
y2 position : -370.479  j = 9
y3 position : -372.449  j = 10
y4 position : -469.29  j = 11
y5 position : -459.881  j = 12
y6 position : -414.752  j = 13
hit on layer 4: 2
y1 position : -88.5736  j = 9
y2 position : -88.5772  j = 10
hit on layer 4: 2
y1 position : -1841.34  j = 2
y2 position : -1184.52  j = 14
hit on layer 4: 3
y1 position : -309.814  j = 1
y2 position : -309.574  j = 2
y3 position : 535.404  j = 11
hit on layer 4: 2
y1 position : -59.687  j = 5
y2 position : -59.6588  j = 6
hit on layer 4: 3
y1 position : 95.653  j = 5
y2 position : 95.6564  j = 6
y3 position : 95.6914  j = 7
hit on layer 4: 2
y1 position : -92.1703  j = 3
y2 position : -92.163  j = 4
hit on layer 4: 2
y1 position : -91.4692  j = 7
y2 position : -91.4461  j = 8
hit on layer 4: 4
y1 position : 127.523  j = 6
y2 position : 92.223  j = 7
y3 position : 113.249  j = 8
y4 position : 71.9025  j = 11
hit on layer 4: 2
y1 position : 304.966  j = 7
y2 position : 304.984  j = 8
hit on layer 4: 2
y1 position : -342.263  j = 7
y2 position : -342.301  j = 8
hit on layer 4: 3
y1 position : 545.716  j = 15
y2 position : 545.73  j = 16
y3 position : 545.729  j = 17
hit on layer 4: 2
y1 position : 173.819  j = 7
y2 position : 173.827  j = 8
hit on layer 4: 2
y1 position : 158.675  j = 2
y2 position : 159.277  j = 3
hit on layer 4: 2
y1 position : 135.188  j = 6
y2 position : 135.195  j = 7
hit on layer 4: 2
y1 position : 332.197  j = 7
y2 position : 332.199  j = 8
hit on layer 4: 2
y1 position : 344.871  j = 7
y2 position : 344.875  j = 8
hit on layer 4: 2
y1 position : 1131.86  j = 0
y2 position : 1131.87  j = 1
hit on layer 4: 3
y1 position : -698.958  j = 1
y2 position : -699.053  j = 2
y3 position : -699.072  j = 3
hit on layer 4: 2
y1 position : -1123.14  j = 8
y2 position : -1123.28  j = 9
hit on layer 4: 3
y1 position : -48.758  j = 5
y2 position : -73.9325  j = 6
y3 position : -307.946  j = 7
hit on layer 4: 2
y1 position : -55.2816  j = 0
y2 position : -55.2833  j = 1
hit on layer 4: 2
y1 position : 85.1045  j = 9
y2 position : 85.1127  j = 10
hit on layer 4: 2
y1 position : -33.3919  j = 7
y2 position : -33.3921  j = 8
hit on layer 4: 2
y1 position : -490.97  j = 2
y2 position : -492.736  j = 3
hit on layer 4: 2
y1 position : -125.395  j = 3
y2 position : -125.41  j = 4
hit on layer 4: 2
y1 position : -242.151  j = 7
y2 position : -242.235  j = 8
hit on layer 4: 2
y1 position : 12.2631  j = 2
y2 position : 12.2616  j = 3
hit on layer 4: 2
y1 position : 381.474  j = 8
y2 position : 381.526  j = 9
hit on layer 4: 7
y1 position : 486.931  j = 2
y2 position : -105.883  j = 12
y3 position : -105.276  j = 13
y4 position : -90.8618  j = 14
y5 position : -90.2591  j = 15
y6 position : -89.581  j = 16
y7 position : -89.3708  j = 17
hit on layer 4: 4
y1 position : 43.8776  j = 8
y2 position : 87.5394  j = 21
y3 position : 40.0618  j = 22
y4 position : -94.7866  j = 23
hit on layer 4: 3
y1 position : 108.908  j = 3
y2 position : 108.916  j = 4
y3 position : 108.923  j = 5
hit on layer 4: 2
y1 position : -158.037  j = 4
y2 position : -158.047  j = 5
hit on layer 4: 2
y1 position : -121.098  j = 3
y2 position : -121.108  j = 4
hit on layer 4: 2
y1 position : 12.9989  j = 5
y2 position : 12.9859  j = 6
hit on layer 4: 2
y1 position : 8.7708  j = 9
y2 position : 8.7583  j = 10
hit on layer 4: 2
y1 position : 157.003  j = 2
y2 position : 157.025  j = 3
hit on layer 4: 2
y1 position : -36.636  j = 3
y2 position : -36.636  j = 4
hit on layer 4: 2
y1 position : -461.913  j = 7
y2 position : -461.921  j = 8
hit on layer 4: 2
y1 position : -146.134  j = 8
y2 position : -146.148  j = 9
hit on layer 4: 2
y1 position : -91.8803  j = 8
y2 position : -91.8807  j = 9
hit on layer 4: 3
y1 position : -116.322  j = 8
y2 position : -116.328  j = 9
y3 position : -116.33  j = 10
hit on layer 4: 2
y1 position : 2.3474  j = 7
y2 position : 2.3472  j = 8
hit on layer 4: 3
y1 position : -715.784  j = 0
y2 position : 922.636  j = 10
y3 position : 926.401  j = 14
hit on layer 4: 2
y1 position : -120.662  j = 3
y2 position : -120.662  j = 4
hit on layer 4: 2
y1 position : 396.754  j = 4
y2 position : 395.805  j = 5
hit on layer 4: 2
y1 position : 45.2935  j = 7
y2 position : 45.293  j = 8
hit on layer 4: 2
y1 position : 64.3083  j = 8
y2 position : 64.3104  j = 9
hit on layer 4: 2
y1 position : 801.374  j = 0
y2 position : 801.436  j = 1
hit on layer 4: 2
y1 position : 1395.76  j = 4
y2 position : -1376.52  j = 14
hit on layer 4: 2
y1 position : -235.876  j = 8
y2 position : -235.88  j = 9
hit on layer 4: 2
y1 position : -143.033  j = 5
y2 position : -143.082  j = 6
hit on layer 4: 2
y1 position : 16.7601  j = 7
y2 position : 16.7566  j = 8
hit on layer 4: 2
y1 position : 227.361  j = 7
y2 position : 227.383  j = 8
hit on layer 4: 2
y1 position : 64.7927  j = 9
y2 position : 64.8023  j = 10
hit on layer 4: 4
y1 position : 129.195  j = 1
y2 position : -200.62  j = 10
y3 position : -197.496  j = 11
y4 position : -197.364  j = 12
hit on layer 4: 2
y1 position : -442.82  j = 1
y2 position : 440.812  j = 10
hit on layer 4: 2
y1 position : -79.4411  j = 3
y2 position : -79.5137  j = 4
hit on layer 4: 2
y1 position : -1279.34  j = 3
y2 position : -1279.36  j = 4
hit on layer 4: 2
y1 position : 430.761  j = 7
y2 position : 430.773  j = 8
hit on layer 4: 2
y1 position : 219.009  j = 6
y2 position : 219.06  j = 7
hit on layer 4: 2
y1 position : 148.388  j = 5
y2 position : 148.406  j = 6
hit on layer 4: 2
y1 position : -8.599  j = 5
y2 position : -8.6116  j = 6
hit on layer 4: 2
y1 position : 64.1165  j = 4
y2 position : 62.5767  j = 5
hit on layer 4: 2
y1 position : 154.268  j = 5
y2 position : 154.283  j = 6
hit on layer 4: 2
y1 position : -172.823  j = 7
y2 position : -172.834  j = 8
hit on layer 4: 2
y1 position : 14.5972  j = 7
y2 position : 14.5971  j = 8
hit on layer 4: 2
y1 position : 37.5794  j = 7
y2 position : 37.5808  j = 8
hit on layer 4: 2
y1 position : 804.841  j = 7
y2 position : 804.91  j = 8
hit on layer 4: 3
y1 position : 453.216  j = 4
y2 position : 579.153  j = 7
y3 position : 629.971  j = 8
hit on layer 4: 2
y1 position : -140.737  j = 2
y2 position : -140.88  j = 3
hit on layer 4: 2
y1 position : -129.274  j = 4
y2 position : -129.27  j = 5
hit on layer 4: 2
y1 position : -148.004  j = 8
y2 position : -148.006  j = 9
hit on layer 4: 2
y1 position : -200.45  j = 4
y2 position : -200.456  j = 5
hit on layer 4: 2
y1 position : 1102.93  j = 3
y2 position : 963.711  j = 19
hit on layer 4: 2
y1 position : -84.4077  j = 7
y2 position : -84.4161  j = 8
hit on layer 4: 2
y1 position : 27.0918  j = 8
y2 position : 27.102  j = 9
hit on layer 4: 5
y1 position : -451.457  j = 8
y2 position : -647.403  j = 9
y3 position : -755.123  j = 10
y4 position : -795.35  j = 13
y5 position : -840.554  j = 14
hit on layer 4: 2
y1 position : 160.611  j = 5
y2 position : 160.612  j = 6
hit on layer 4: 2
y1 position : -1755.35  j = 2
y2 position : -1755.64  j = 3
hit on layer 4: 3
y1 position : 622.961  j = 7
y2 position : 623.019  j = 8
y3 position : 623.02  j = 9
hit on layer 4: 6
y1 position : 252.166  j = 0
y2 position : -95.4898  j = 11
y3 position : -95.6488  j = 12
y4 position : -96.2243  j = 13
y5 position : -98.0063  j = 14
y6 position : -99.383  j = 15
hit on layer 4: 2
y1 position : -134.651  j = 1
y2 position : -134.669  j = 2
hit on layer 4: 3
y1 position : -388.77  j = 8
y2 position : -388.804  j = 9
y3 position : -388.806  j = 10
hit on layer 4: 2
y1 position : 1168.75  j = 4
y2 position : 1168.91  j = 5
hit on layer 4: 2
y1 position : -71.4616  j = 3
y2 position : -71.5361  j = 4
hit on layer 4: 2
y1 position : -164.449  j = 8
y2 position : -164.454  j = 9
hit on layer 4: 2
y1 position : -73.3916  j = 1
y2 position : -73.3942  j = 2
hit on layer 4: 2
y1 position : 177.799  j = 7
y2 position : 177.813  j = 8
hit on layer 4: 2
y1 position : -100.773  j = 7
y2 position : -100.78  j = 8
hit on layer 4: 5
y1 position : 1277.46  j = 5
y2 position : 895.609  j = 20
y3 position : 864.305  j = 21
y4 position : 776.626  j = 22
y5 position : 775.315  j = 23
hit on layer 4: 2
y1 position : 81.1674  j = 7
y2 position : 81.1731  j = 8
hit on layer 4: 2
y1 position : -800.578  j = 3
y2 position : 893.632  j = 12
hit on layer 4: 2
y1 position : 11.5355  j = 0
y2 position : 11.5787  j = 1
hit on layer 4: 2
y1 position : -65.6829  j = 9
y2 position : -65.679  j = 10
hit on layer 4: 2
y1 position : -45.1756  j = 7
y2 position : -45.1615  j = 8
hit on layer 4: 2
y1 position : -99.6818  j = 3
y2 position : -99.6832  j = 4
hit on layer 4: 2
y1 position : 1582  j = 7
y2 position : 1582.06  j = 8
hit on layer 4: 2
y1 position : 87.707  j = 7
y2 position : 87.7134  j = 8
hit on layer 4: 2
y1 position : -493.597  j = 7
y2 position : -493.655  j = 8
hit on layer 4: 2
y1 position : -413.764  j = 8
y2 position : -413.781  j = 9
hit on layer 4: 2
y1 position : -456.583  j = 7
y2 position : -456.593  j = 8
hit on layer 4: 2
y1 position : -10.6579  j = 7
y2 position : -10.6623  j = 8
hit on layer 4: 2
y1 position : -62.972  j = 3
y2 position : -62.972  j = 4
hit on layer 4: 2
y1 position : -177.883  j = 6
y2 position : -177.894  j = 7
hit on layer 4: 2
y1 position : -908.138  j = 4
y2 position : -908.187  j = 5
hit on layer 4: 2
y1 position : -73.5247  j = 1
y2 position : -73.5092  j = 2
hit on layer 4: 2
y1 position : 459.881  j = 1
y2 position : 459.928  j = 2
hit on layer 4: 2
y1 position : -178.767  j = 7
y2 position : -178.771  j = 8
hit on layer 4: 2
y1 position : -522.961  j = 7
y2 position : -523.442  j = 8
hit on layer 4: 2
y1 position : -46.4524  j = 4
y2 position : 181.072  j = 18
hit on layer 4: 2
y1 position : -142.37  j = 5
y2 position : -142.391  j = 6
hit on layer 4: 2
y1 position : 59.3112  j = 7
y2 position : 59.3193  j = 8
hit on layer 4: 2
y1 position : -542.419  j = 7
y2 position : -542.44  j = 8
hit on layer 4: 2
y1 position : 159.14  j = 7
y2 position : 159.157  j = 8
hit on layer 4: 2
y1 position : -761.399  j = 4
y2 position : -75.7497  j = 12
hit on layer 4: 2
y1 position : 1113.64  j = 3
y2 position : 1113.8  j = 4
hit on layer 4: 2
y1 position : 135.86  j = 3
y2 position : 135.894  j = 4
hit on layer 4: 2
y1 position : 143.476  j = 7
y2 position : 143.477  j = 8
hit on layer 4: 2
y1 position : -1051.24  j = 1
y2 position : -1051.34  j = 2
hit on layer 4: 2
y1 position : -307.552  j = 1
y2 position : -307.551  j = 2
hit on layer 4: 2
y1 position : -370.525  j = 3
y2 position : -370.547  j = 4
hit on layer 4: 2
y1 position : 213.067  j = 7
y2 position : 213.085  j = 8
hit on layer 4: 2
y1 position : -48.1705  j = 7
y2 position : -48.1727  j = 8
hit on layer 4: 2
y1 position : -20.8011  j = 5
y2 position : -20.8041  j = 6
hit on layer 4: 2
y1 position : 119.903  j = 2
y2 position : 119.919  j = 3
hit on layer 4: 2
y1 position : -53.4191  j = 5
y2 position : -53.4254  j = 6
hit on layer 4: 2
y1 position : 30.9751  j = 7
y2 position : 30.9794  j = 8
hit on layer 4: 2
y1 position : 227.981  j = 7
y2 position : 228.076  j = 8
hit on layer 4: 2
y1 position : 539.788  j = 4
y2 position : 517.438  j = 13
hit on layer 4: 2
y1 position : 83.8891  j = 7
y2 position : 83.8931  j = 8
hit on layer 4: 2
y1 position : -2115.85  j = 7
y2 position : -2115.85  j = 8
hit on layer 4: 2
y1 position : 93.4038  j = 3
y2 position : 93.4104  j = 4
hit on layer 4: 2
y1 position : 53.9194  j = 7
y2 position : 53.92  j = 8
hit on layer 4: 2
y1 position : -930.324  j = 7
y2 position : -930.519  j = 8
hit on layer 4: 2
y1 position : -362.972  j = 1
y2 position : -363.468  j = 2
hit on layer 4: 2
y1 position : 43.7129  j = 0
y2 position : -533.4  j = 10
hit on layer 4: 2
y1 position : -79.539  j = 5
y2 position : -79.5393  j = 6
hit on layer 4: 2
y1 position : -119.197  j = 0
y2 position : -119.247  j = 1
hit on layer 4: 2
y1 position : 19.1839  j = 4
y2 position : 19.1898  j = 5
hit on layer 4: 2
y1 position : -98.2888  j = 0
y2 position : -98.3151  j = 1
hit on layer 4: 2
y1 position : -48.6385  j = 0
y2 position : -48.6408  j = 1
hit on layer 4: 2
y1 position : 990.007  j = 4
y2 position : 988.753  j = 5
hit on layer 4: 2
y1 position : 92.4865  j = 7
y2 position : 92.4876  j = 8
hit on layer 4: 2
y1 position : 44.2823  j = 7
y2 position : 44.2894  j = 8
hit on layer 4: 2
y1 position : 7.9988  j = 1
y2 position : 7.9865  j = 2
hit on layer 4: 2
y1 position : -348.934  j = 7
y2 position : -348.957  j = 8
hit on layer 4: 2
y1 position : -1600.97  j = 5
y2 position : -1601.08  j = 6
hit on layer 4: 2
y1 position : -662.524  j = 8
y2 position : -662.568  j = 9
hit on layer 4: 5
y1 position : -142.275  j = 5
y2 position : 199.756  j = 14
y3 position : 199.746  j = 15
y4 position : 3.3806  j = 22
y5 position : 854.278  j = 27
hit on layer 4: 2
y1 position : -105.737  j = 7
y2 position : -105.742  j = 8
hit on layer 4: 2
y1 position : 47.3157  j = 6
y2 position : 47.3091  j = 7
hit on layer 4: 2
y1 position : 409.56  j = 7
y2 position : 409.762  j = 8
hit on layer 4: 2
y1 position : 400.866  j = 6
y2 position : 400.989  j = 7
hit on layer 4: 2
y1 position : 399.994  j = 5
y2 position : 399.994  j = 6
hit on layer 4: 2
y1 position : -843.569  j = 7
y2 position : -843.576  j = 8
hit on layer 4: 5
y1 position : -231.258  j = 8
y2 position : -313.808  j = 9
y3 position : -211.048  j = 10
y4 position : -127.663  j = 11
y5 position : -126.167  j = 12
hit on layer 4: 2
y1 position : -80.3203  j = 2
y2 position : -80.3305  j = 3
hit on layer 4: 2
y1 position : 603.999  j = 0
y2 position : 604.024  j = 1
hit on layer 4: 2
y1 position : -291.783  j = 7
y2 position : -291.807  j = 8
hit on layer 4: 2
y1 position : -20.6166  j = 2
y2 position : -20.6471  j = 3
hit on layer 4: 2
y1 position : 101.783  j = 8
y2 position : 101.793  j = 9
hit on layer 4: 2
y1 position : 101.487  j = 7
y2 position : 101.502  j = 8
hit on layer 4: 2
y1 position : -287.754  j = 5
y2 position : -288.475  j = 6
hit on layer 4: 2
y1 position : -1788.49  j = 5
y2 position : -1788.5  j = 6
hit on layer 4: 2
y1 position : -30.0173  j = 3
y2 position : -30.0273  j = 4
hit on layer 4: 2
y1 position : -132.12  j = 1
y2 position : -132.123  j = 2
hit on layer 4: 3
y1 position : -670.882  j = 2
y2 position : 74.3913  j = 15
y3 position : -239.63  j = 16
hit on layer 4: 2
y1 position : -228.892  j = 1
y2 position : -228.871  j = 2
hit on layer 4: 2
y1 position : -94.1471  j = 8
y2 position : -94.1519  j = 9
hit on layer 4: 2
y1 position : 358.369  j = 7
y2 position : 358.398  j = 8
hit on layer 4: 2
y1 position : 96.9474  j = 8
y2 position : 96.9117  j = 9
hit on layer 4: 3
y1 position : -727.743  j = 8
y2 position : -792.85  j = 9
y3 position : -837.842  j = 10
hit on layer 4: 2
y1 position : 164.585  j = 7
y2 position : 164.607  j = 8
hit on layer 4: 2
y1 position : 71.6024  j = 8
y2 position : 71.6095  j = 9
hit on layer 4: 2
y1 position : -297.865  j = 7
y2 position : -297.903  j = 8
hit on layer 4: 2
y1 position : -304.074  j = 6
y2 position : -304.098  j = 7
hit on layer 4: 2
y1 position : -168.194  j = 7
y2 position : -168.204  j = 8
hit on layer 4: 2
y1 position : -64.9272  j = 6
y2 position : -64.9274  j = 7
hit on layer 4: 2
y1 position : -696.834  j = 7
y2 position : -696.834  j = 8
hit on layer 4: 3
y1 position : 1346.41  j = 6
y2 position : 1481.79  j = 21
y3 position : 1480.98  j = 22
hit on layer 4: 2
y1 position : -930.021  j = 6
y2 position : -929.947  j = 7
hit on layer 4: 2
y1 position : 504.023  j = 7
y2 position : 504.061  j = 8
hit on layer 4: 2
y1 position : -23.2648  j = 7
y2 position : -23.2639  j = 8
hit on layer 4: 2
y1 position : -695.89  j = 7
y2 position : -695.903  j = 8
hit on layer 4: 2
y1 position : 170.104  j = 7
y2 position : 170.13  j = 8
hit on layer 4: 2
y1 position : -31.55  j = 7
y2 position : -31.5535  j = 8
hit on layer 4: 2
y1 position : 53.5987  j = 8
y2 position : 53.6007  j = 9
hit on layer 4: 2
y1 position : 116.525  j = 3
y2 position : 116.558  j = 4
hit on layer 4: 3
y1 position : -775.037  j = 0
y2 position : 952.993  j = 9
y3 position : 952.793  j = 10
hit on layer 4: 2
y1 position : 140.557  j = 5
y2 position : 140.591  j = 6
hit on layer 4: 2
y1 position : 48.4731  j = 6
y2 position : 48.492  j = 7
hit on layer 4: 2
y1 position : 817.961  j = 7
y2 position : 818.067  j = 8
hit on layer 4: 2
y1 position : -347.761  j = 4
y2 position : -347.802  j = 5
hit on layer 4: 2
y1 position : -66.0898  j = 0
y2 position : -66.098  j = 1
hit on layer 4: 2
y1 position : -1467.07  j = 5
y2 position : -1466.6  j = 6
hit on layer 4: 2
y1 position : -56.51  j = 8
y2 position : -56.5053  j = 9
hit on layer 4: 5
y1 position : 288.889  j = 4
y2 position : 343.941  j = 11
y3 position : 352.63  j = 12
y4 position : 117.134  j = 17
y5 position : 64.658  j = 18
hit on layer 4: 2
y1 position : 763.923  j = 3
y2 position : 763.974  j = 4
hit on layer 4: 2
y1 position : 264.556  j = 2
y2 position : 264.672  j = 3
hit on layer 4: 2
y1 position : -99.5513  j = 9
y2 position : -99.5567  j = 10
hit on layer 4: 2
y1 position : -115.097  j = 7
y2 position : -115.125  j = 8
hit on layer 4: 2
y1 position : -76.971  j = 5
y2 position : -76.9808  j = 6
hit on layer 4: 2
y1 position : -803.32  j = 2
y2 position : -803.84  j = 3
hit on layer 4: 2
y1 position : -55.902  j = 8
y2 position : -55.9161  j = 9
hit on layer 4: 2
y1 position : 18.8009  j = 4
y2 position : 18.804  j = 5
hit on layer 4: 2
y1 position : 242.635  j = 7
y2 position : 242.661  j = 8
hit on layer 4: 2
y1 position : 434.62  j = 1
y2 position : 434.62  j = 2
hit on layer 4: 2
y1 position : -1175.58  j = 3
y2 position : 1739.11  j = 12
hit on layer 4: 5
y1 position : 506.101  j = 9
y2 position : 706.053  j = 10
y3 position : 708.077  j = 11
y4 position : 715.509  j = 12
y5 position : 718.586  j = 13
hit on layer 4: 2
y1 position : -105.384  j = 4
y2 position : -105.392  j = 5
hit on layer 4: 2
y1 position : 120.204  j = 3
y2 position : 120.253  j = 4
hit on layer 4: 2
y1 position : 5.9521  j = 1
y2 position : -4.161  j = 8
hit on layer 4: 3
y1 position : -936.339  j = 7
y2 position : -926.83  j = 8
y3 position : -926.612  j = 9
hit on layer 4: 2
y1 position : -10.0513  j = 7
y2 position : -10.0531  j = 8
hit on layer 4: 3
y1 position : 1937.53  j = 4
y2 position : 1935.08  j = 5
y3 position : 1933.47  j = 6
hit on layer 4: 2
y1 position : -269.494  j = 7
y2 position : -269.499  j = 8
hit on layer 4: 2
y1 position : 14.7765  j = 5
y2 position : 14.7785  j = 6
hit on layer 4: 2
y1 position : 262.005  j = 6
y2 position : 262.083  j = 7
hit on layer 4: 2
y1 position : -75.8116  j = 7
y2 position : -75.8176  j = 8
hit on layer 4: 2
y1 position : 61.5706  j = 7
y2 position : 61.5715  j = 8
hit on layer 4: 2
y1 position : 1167.09  j = 7
y2 position : 1167.17  j = 8
hit on layer 4: 2
y1 position : -81.4748  j = 0
y2 position : -81.485  j = 1
hit on layer 4: 2
y1 position : -761.622  j = 6
y2 position : -762.199  j = 7
hit on layer 4: 2
y1 position : -4.4362  j = 1
y2 position : 2020.31  j = 16
hit on layer 4: 2
y1 position : 79.3379  j = 7
y2 position : 79.3402  j = 8
hit on layer 4: 2
y1 position : -245.21  j = 7
y2 position : -245.214  j = 8
hit on layer 4: 2
y1 position : -434.946  j = 7
y2 position : -434.947  j = 8
hit on layer 4: 2
y1 position : 2128.4  j = 7
y2 position : 2128.56  j = 8
hit on layer 4: 2
y1 position : 152.473  j = 7
y2 position : 152.495  j = 8
hit on layer 4: 6
y1 position : -49.3917  j = 0
y2 position : -41.3168  j = 10
y3 position : -41.4079  j = 11
y4 position : -63.9007  j = 12
y5 position : -100.673  j = 13
y6 position : -86.4111  j = 14
hit on layer 4: 4
y1 position : 139.919  j = 12
y2 position : 148.876  j = 13
y3 position : 149.68  j = 14
y4 position : 151.033  j = 15
hit on layer 4: 2
y1 position : 24.6205  j = 5
y2 position : 24.6424  j = 6
hit on layer 4: 2
y1 position : -1066.07  j = 6
y2 position : -1066.1  j = 7
hit on layer 4: 2
y1 position : -387.194  j = 4
y2 position : -1370.08  j = 15
hit on layer 4: 2
y1 position : -176.807  j = 7
y2 position : -176.809  j = 8
hit on layer 4: 2
y1 position : -200.585  j = 0
y2 position : -200.496  j = 1
hit on layer 4: 2
y1 position : 133.773  j = 8
y2 position : 133.796  j = 9
hit on layer 4: 2
y1 position : -154.137  j = 0
y2 position : -154.153  j = 1
hit on layer 4: 2
y1 position : -1051.06  j = 1
y2 position : -1051.1  j = 2
hit on layer 4: 2
y1 position : -1074.1  j = 4
y2 position : -1074.24  j = 5
hit on layer 4: 2
y1 position : -1547.93  j = 5
y2 position : -1548.17  j = 6
hit on layer 4: 2
y1 position : -225.679  j = 4
y2 position : -4.5012  j = 18
hit on layer 4: 2
y1 position : 92.489  j = 4
y2 position : 92.4825  j = 5
hit on layer 4: 5
y1 position : -55.8055  j = 6
y2 position : -427.378  j = 11
y3 position : -614.383  j = 12
y4 position : -501.746  j = 15
y5 position : -580.485  j = 16
hit on layer 4: 2
y1 position : 274.279  j = 7
y2 position : 274.307  j = 8
hit on layer 4: 2
y1 position : 80.131  j = 3
y2 position : 80.132  j = 4
hit on layer 4: 5
y1 position : -155.141  j = 6
y2 position : -242.893  j = 7
y3 position : -467.922  j = 8
y4 position : -510.122  j = 9
y5 position : -510.737  j = 10
hit on layer 4: 2
y1 position : -386.524  j = 5
y2 position : -386.577  j = 6
hit on layer 4: 2
y1 position : -245.936  j = 7
y2 position : -245.954  j = 8
hit on layer 4: 2
y1 position : -156.286  j = 7
y2 position : -156.292  j = 8
hit on layer 4: 2
y1 position : -147.946  j = 7
y2 position : -147.949  j = 8
hit on layer 4: 2
y1 position : 1097.19  j = 7
y2 position : 1097.22  j = 8
hit on layer 4: 2
y1 position : -956.242  j = 7
y2 position : -928.63  j = 8
hit on layer 4: 2
y1 position : -38.678  j = 7
y2 position : -38.7001  j = 8
hit on layer 4: 2
y1 position : 57.6314  j = 7
y2 position : 57.638  j = 8
hit on layer 4: 2
y1 position : 80.4303  j = 7
y2 position : 80.4372  j = 8
hit on layer 4: 2
y1 position : -1267.22  j = 8
y2 position : -1267.16  j = 9
hit on layer 4: 2
y1 position : -287.914  j = 6
y2 position : -288.013  j = 7
hit on layer 4: 2
y1 position : -341.009  j = 7
y2 position : -341.011  j = 8
hit on layer 4: 2
y1 position : -91.8926  j = 8
y2 position : -91.9003  j = 9
hit on layer 4: 2
y1 position : -92.4082  j = 7
y2 position : -92.4161  j = 8
hit on layer 4: 2
y1 position : -91.096  j = 1
y2 position : -91.109  j = 2
hit on layer 4: 2
y1 position : -334.162  j = 0
y2 position : -334.203  j = 1
hit on layer 4: 2
y1 position : -184.002  j = 9
y2 position : -184.024  j = 10
hit on layer 4: 2
y1 position : -218.648  j = 7
y2 position : -218.728  j = 8
hit on layer 4: 2
y1 position : 219.951  j = 2
y2 position : 219.968  j = 3
hit on layer 4: 2
y1 position : 211.492  j = 7
y2 position : 211.571  j = 8
hit on layer 4: 2
y1 position : 47.3473  j = 10
y2 position : 47.3457  j = 11
hit on layer 4: 2
y1 position : 42.67  j = 8
y2 position : 42.6745  j = 9
hit on layer 4: 2
y1 position : 1.6635  j = 8
y2 position : 1.7114  j = 9
hit on layer 4: 2
y1 position : -121.545  j = 7
y2 position : -121.549  j = 8
hit on layer 4: 2
y1 position : 267.708  j = 8
y2 position : 267.766  j = 9
hit on layer 4: 2
y1 position : 743.537  j = 7
y2 position : 743.647  j = 8
hit on layer 4: 5
y1 position : -379.722  j = 0
y2 position : -844.306  j = 11
y3 position : -801.783  j = 12
y4 position : -817.057  j = 13
y5 position : -815.233  j = 14
hit on layer 4: 4
y1 position : 140.406  j = 2
y2 position : 140.428  j = 3
y3 position : -108.603  j = 16
y4 position : 28.0547  j = 20
hit on layer 4: 2
y1 position : 46.1511  j = 6
y2 position : 46.1665  j = 7
hit on layer 4: 2
y1 position : 373.286  j = 2
y2 position : 373.414  j = 3
hit on layer 4: 2
y1 position : -81.2325  j = 7
y2 position : -81.2434  j = 8
hit on layer 4: 2
y1 position : 519.674  j = 4
y2 position : 519.705  j = 5
hit on layer 4: 2
y1 position : 105.843  j = 7
y2 position : 105.845  j = 8
hit on layer 4: 2
y1 position : 1398.1  j = 7
y2 position : 1398.14  j = 8
hit on layer 4: 2
y1 position : -22.2603  j = 3
y2 position : -22.3182  j = 4
count = 866